<svg width="24" height="24" viewBox="0 0 24 24" fill="none" xmlns="http://www.w3.org/2000/svg">
<path fill-rule="evenodd" clip-rule="evenodd" d="M21.3333 0H2.66667C1.19391 0 0 1.19391 0 2.66667V21.3333C0 22.8061 1.19391 24 2.66667 24H21.3333C22.8061 24 24 22.8061 24 21.3333V2.66667C24 1.19391 22.8061 0 21.3333 0ZM21.3333 21.3333H2.66667V2.66667H21.3333V21.3333ZM10.6667 13.3333H7.33333C6.96514 13.3333 6.66667 13.0349 6.66667 12.6667V11.3333C6.66667 10.9651 6.96514 10.6667 7.33333 10.6667H10.6667V7.33333C10.6667 6.96514 10.9651 6.66667 11.3333 6.66667H12.6667C13.0349 6.66667 13.3333 6.96514 13.3333 7.33333V10.6667H16.6667C17.0349 10.6667 17.3333 10.9651 17.3333 11.3333V12.6667C17.3333 13.0349 17.0349 13.3333 16.6667 13.3333H13.3333V16.6667C13.3333 17.0349 13.0349 17.3333 12.6667 17.3333H11.3333C10.9651 17.3333 10.6667 17.0349 10.6667 16.6667V13.3333Z" fill="black" fill-opacity="0.25"/>
</svg>
