<svg width="14" height="12" viewBox="0 0 14 12" fill="none" xmlns="http://www.w3.org/2000/svg">
<path fill-rule="evenodd" clip-rule="evenodd" d="M12.9999 0.666748H8.99992C8.23293 0.669402 7.50421 1.00218 6.99992 1.58008C6.49562 1.00218 5.76691 0.669402 4.99992 0.666748H0.999919C0.631729 0.666748 0.333252 0.965225 0.333252 1.33341V10.0001C0.333252 10.3683 0.631729 10.6667 0.999919 10.6667H4.72659C4.90148 10.6675 5.06908 10.7369 5.19325 10.8601L5.47325 11.1401C5.59743 11.2632 5.76503 11.3327 5.93992 11.3334H8.05992C8.23481 11.3327 8.40241 11.2632 8.52659 11.1401L8.80659 10.8601C8.93076 10.7369 9.09836 10.6675 9.27325 10.6667H12.9999C13.3681 10.6667 13.6666 10.3683 13.6666 10.0001V1.33341C13.6666 0.965225 13.3681 0.666748 12.9999 0.666748ZM6.33325 9.02675C5.92813 8.79174 5.46827 8.66758 4.99992 8.66675H1.66659V2.00008H4.99992C5.7363 2.00008 6.33325 2.59703 6.33325 3.33341V9.02675ZM8.99992 8.66675H12.3333V2.00008H8.99992C8.26354 2.00008 7.66659 2.59703 7.66659 3.33341V9.02675C8.0717 8.79174 8.53157 8.66758 8.99992 8.66675Z" fill="black"/>
</svg>
