<svg width="12" height="14" viewBox="0 0 12 14" fill="none" xmlns="http://www.w3.org/2000/svg">
<path d="M7.72675 0.726585C7.47341 0.473252 7.13341 0.333252 6.78008 0.333252H2.00008C1.26675 0.333252 0.666748 0.933252 0.666748 1.66659V12.3333C0.666748 13.0666 1.26008 13.6666 1.99341 13.6666H10.0001C10.7334 13.6666 11.3334 13.0666 11.3334 12.3333V4.88659C11.3334 4.53325 11.1934 4.19325 10.9401 3.94659L7.72675 0.726585ZM8.00008 10.9999H4.00008C3.63341 10.9999 3.33341 10.6999 3.33341 10.3333C3.33341 9.96659 3.63341 9.66659 4.00008 9.66659H8.00008C8.36675 9.66659 8.66675 9.96659 8.66675 10.3333C8.66675 10.6999 8.36675 10.9999 8.00008 10.9999ZM8.00008 8.33325H4.00008C3.63341 8.33325 3.33341 8.03325 3.33341 7.66659C3.33341 7.29992 3.63341 6.99992 4.00008 6.99992H8.00008C8.36675 6.99992 8.66675 7.29992 8.66675 7.66659C8.66675 8.03325 8.36675 8.33325 8.00008 8.33325ZM6.66675 4.33325V1.33325L10.3334 4.99992H7.33341C6.96675 4.99992 6.66675 4.69992 6.66675 4.33325Z" fill="black"/>
</svg>
